FIR/qsim_dc/fir_regfile/testbench.vcd
$date
	Sun Nov 23 15:28:20 2025
$end
$version
	ModelSim Version 2024.2
$end
$timescale
	1ps
$end

$scope module testbench $end

$scope module dut $end
$var wire 1 ! clk2 $end
$var wire 1 " rstn $end
$var wire 1 # wen $end
$var wire 1 $ waddr [5] $end
$var wire 1 % waddr [4] $end
$var wire 1 & waddr [3] $end
$var wire 1 ' waddr [2] $end
$var wire 1 ( waddr [1] $end
$var wire 1 ) waddr [0] $end
$var wire 1 * din [15] $end
$var wire 1 + din [14] $end
$var wire 1 , din [13] $end
$var wire 1 - din [12] $end
$var wire 1 . din [11] $end
$var wire 1 / din [10] $end
$var wire 1 0 din [9] $end
$var wire 1 1 din [8] $end
$var wire 1 2 din [7] $end
$var wire 1 3 din [6] $end
$var wire 1 4 din [5] $end
$var wire 1 5 din [4] $end
$var wire 1 6 din [3] $end
$var wire 1 7 din [2] $end
$var wire 1 8 din [1] $end
$var wire 1 9 din [0] $end
$var wire 1 : ren $end
$var wire 1 ; raddr [5] $end
$var wire 1 < raddr [4] $end
$var wire 1 = raddr [3] $end
$var wire 1 > raddr [2] $end
$var wire 1 ? raddr [1] $end
$var wire 1 @ raddr [0] $end
$var wire 1 A dout [15] $end
$var wire 1 B dout [14] $end
$var wire 1 C dout [13] $end
$var wire 1 D dout [12] $end
$var wire 1 E dout [11] $end
$var wire 1 F dout [10] $end
$var wire 1 G dout [9] $end
$var wire 1 H dout [8] $end
$var wire 1 I dout [7] $end
$var wire 1 J dout [6] $end
$var wire 1 K dout [5] $end
$var wire 1 L dout [4] $end
$var wire 1 M dout [3] $end
$var wire 1 N dout [2] $end
$var wire 1 O dout [1] $end
$var wire 1 P dout [0] $end
$upscope $end
$upscope $end
$enddefinitions $end
#0
$dumpvars
xP
xO
xN
xM
xL
xK
xJ
xI
xH
xG
xF
xE
xD
xC
xB
xA
0@
0?
0>
0=
0<
0;
0:
09
08
07
06
05
04
03
02
01
00
0/
0.
0-
0,
0+
0*
0)
0(
0'
0&
0%
0$
0#
0"
0!
$end
#1309
0D
0E
0F
0G
0H
0I
0J
0L
0M
0N
0O
#1379
0C
#1389
0A
0B
0K
0P
#5000
1!
#10000
0!
#15000
1!
#20000
0!
#25000
1!
1"
#30000
0!
#35000
1!
1#
17
14
11
1/
1-
1,
#40000
0!
#45000
1!
19
07
04
12
01
10
1.
0,
1+
1)
#50000
0!
#55000
1!
16
02
0.
1*
0)
1(
#60000
0!
#65000
1!
18
06
14
13
0*
1)
#70000
0!
#75000
1!
08
17
16
04
03
11
0/
1.
1,
0)
0(
1'
#80000
0!
#85000
1!
12
00
0,
0+
1*
1)
#90000
0!
#95000
1!
06
14
13
02
01
1/
0.
0-
0)
1(
#100000
0!
#105000
1!
09
18
07
15
04
03
10
0/
1-
1+
0*
1)
#110000
0!
#115000
1!
19
08
05
11
0-
1,
1*
0)
0(
0'
1&
#120000
0!
#125000
1!
17
16
00
1/
1.
0,
1)
#130000
0!
#135000
1!
09
18
06
15
14
13
0/
0.
1-
1,
0)
1(
#140000
0!
#145000
1!
19
08
16
03
1/
1.
0-
0,
1)
#150000
0!
#155000
1!
05
13
12
10
0.
1-
0*
0)
0(
1'
#160000
0!
#165000
1!
09
04
03
1,
1*
1)
#170000
0!
#175000
1!
19
07
15
14
13
00
0/
1.
0-
0)
1(
#180000
0!
#185000
1!
09
18
17
06
05
04
01
1/
0.
0+
0*
1)
#190000
0!
#195000
1!
19
08
0,
1*
0)
0(
0'
0&
1%
#200000
0!
#205000
1!
09
18
07
16
14
03
10
0/
1-
1+
1)
#210000
0!
#215000
1!
19
08
17
06
13
11
1/
1,
0)
1(
#220000
0!
#225000
1!
18
15
02
01
0/
0*
1)
#230000
0!
#235000
1!
09
07
04
03
1/
0,
1*
0)
0(
1'
#240000
0!
#245000
1!
19
17
16
05
12
11
0/
1.
1)
#250000
0!
#255000
1!
09
07
06
15
14
13
00
0-
1,
0*
0)
1(
#260000
0!
#265000
1!
17
16
05
04
01
10
1/
0.
1-
0,
0+
1*
1)
#270000
0!
#275000
1!
08
07
14
0/
1.
1,
1+
0*
0)
0(
0'
1&
#280000
0!
#285000
1!
19
17
06
04
1/
0-
0,
1)
#290000
0!
#295000
1!
09
16
15
02
11
00
0/
0)
1(
#300000
0!
#305000
1!
19
14
03
12
01
1,
0+
1)
#310000
0!
#315000
1!
05
02
1-
0,
1+
0)
0(
1'
#320000
0!
#325000
1!
06
13
10
1/
0.
0-
1,
0+
1)
#330000
0!
#335000
1!
18
07
0/
1+
0)
1(
#340000
0!
#345000
1!
09
16
04
03
11
1/
0,
0+
1*
1)
#350000
0!
#355000
1!
08
06
12
01
0/
1,
0*
0)
0(
0'
0&
0%
1$
#360000
0!
#365000
1!
14
02
11
00
1)
#370000
0!
#375000
1!
18
16
12
1/
0,
1+
0)
1(
#380000
0!
#385000
1!
19
08
17
15
04
01
1.
1*
1)
#390000
0!
#395000
1!
09
18
06
10
1-
1,
0+
0*
0)
0(
1'
#400000
0!
#405000
1!
19
07
02
00
0/
1*
1)
#410000
0!
#415000
1!
08
17
16
05
0*
0)
1(
#420000
0!
#425000
1!
18
07
06
15
13
10
1/
0.
0,
1+
1*
1)
#430000
0!
#435000
1!
16
05
14
11
00
1.
0)
0(
0'
1&
#440000
0!
#445000
1!
08
17
06
15
04
12
01
10
0/
0-
1,
0+
0*
1)
#450000
0!
#455000
1!
09
18
07
05
03
02
0,
1+
0)
1(
#460000
0!
#465000
1!
17
16
14
12
1/
1-
1,
0+
1)
#470000
0!
#475000
1!
19
08
15
04
02
11
00
0/
0-
1+
1*
0)
0(
1'
#480000
0!
#485000
1!
18
05
13
12
01
10
0.
1-
0*
1)
#490000
0!
#495000
1!
07
06
14
03
02
11
00
1.
0-
0,
0)
1(
#500000
0!
#505000
1!
09
16
04
1/
0.
1,
1)
#510000
0!
#515000
1!
13
12
01
10
0/
1.
0,
0+
0)
0(
0'
0&
1%
#520000
0!
#525000
1!
08
17
15
14
03
02
00
1/
1+
1)
#530000
0!
#535000
1!
18
07
06
13
12
11
1-
1,
0+
1*
0)
1(
#540000
0!
#545000
1!
16
05
04
03
0/
0.
0-
1+
0*
1)
#550000
0!
#555000
1!
19
08
06
13
02
10
1-
0+
1*
0)
0(
1'
#560000
0!
#565000
1!
09
16
15
12
01
00
1/
0*
1)
#570000
0!
#575000
1!
14
02
11
10
0/
1+
1*
0)
1(
#580000
0!
#585000
1!
19
05
04
03
12
01
0,
0+
0*
1)
#590000
0!
#595000
1!
18
14
13
11
00
1/
1.
0-
0)
0(
0'
1&
#600000
0!
#605000
1!
09
17
06
15
03
0.
1,
1+
1)
#610000
0!
#615000
1!
05
04
13
0/
1.
1-
1*
0)
1(
#620000
0!
#625000
1!
16
14
03
10
0.
0,
0+
0*
1)
#630000
0!
#635000
1!
08
15
01
0-
0)
0(
1'
#640000
0!
#645000
1!
18
07
05
02
11
00
1/
1.
1-
1+
1*
1)
#650000
0!
#655000
1!
19
04
01
10
0/
0+
0)
1(
#660000
0!
#665000
1!
08
06
15
14
13
1/
1,
1)
#670000
0!
#675000
1!
0#
1:
#680000
0!
#685000
1!
1@
#685731
1D
1F
1H
1N
#685784
1C
#685945
1K
#690000
0!
#695000
1!
0@
1?
#695731
1E
1G
1I
#695876
0H
0N
#695922
0C
#695932
0K
#695945
1B
1P
#700000
0!
#705000
1!
1@
#705731
1M
#705876
0E
0I
#705945
1A
#710000
0!
#715000
1!
0@
0?
1>
#715731
1J
1O
#715876
0M
#715932
0A
#715945
1K
#720000
0!
#725000
1!
1@
#725731
1E
1H
1M
1N
#725784
1C
#725876
0F
0J
0O
#725932
0K
#730000
0!
#735000
1!
0@
1?
#735731
1I
#735876
0G
#735922
0C
#735932
0B
#735945
1A
#740000
0!
#745000
1!
1@
#745731
1F
1J
#745876
0D
0E
0H
0I
0M
#745945
1K
#750000
0!
#755000
1!
0@
0?
0>
1=
#755731
1D
1G
1L
1O
#755876
0F
0J
0N
#755932
0A
0K
0P
#755945
1B
#760000
0!
#765000
1!
1@
#765731
1H
#765784
1C
#765876
0D
0L
0O
#765945
1A
1P
#770000
0!
#775000
1!
0@
1?
#775731
1E
1F
1M
1N
#775876
0G
#775922
0C
#780000
0!
#785000
1!
1@
#785731
1D
1J
1L
1O
#785784
1C
#785876
0E
0F
0M
#785932
0P
#785945
1K
#790000
0!
#795000
1!
0@
0?
1>
#795731
1E
1F
1M
#795876
0D
0J
0O
#795922
0C
#795945
1P
#800000
0!
#805000
1!
1@
#805731
1D
1G
1I
1J
#805876
0E
0L
#805932
0A
#810000
0!
#815000
1!
0@
1?
#815784
1C
#815876
0J
#815932
0K
0P
#815945
1A
#820000
0!
#825000
1!
1@
#825731
1E
1J
1L
#825876
0D
0F
0G
0N
#825945
1K
1P
#830000
0!
#835000
1!
0@
0?
0>
0=
1<
#835731
1F
1N
1O
#835876
0E
0H
0L
0M
#835932
0A
0B
0K
0P
#840000
0!
#845000
1!
1@
#845876
0O
#845922
0C
#845945
1A
1P
#850000
0!
#855000
1!
0@
1?
#855731
1D
1G
1M
1O
#855876
0F
0J
0N
#855932
0P
#855945
1B
1K
#860000
0!
#865000
1!
1@
#865731
1F
1H
1J
1N
#865784
1C
#865876
0M
0O
#865945
1P
#870000
0!
#875000
1!
0@
0?
1>
#875731
1L
1O
#875876
0F
0H
0I
#875932
0A
#880000
0!
#885000
1!
1@
#885731
1F
#885876
0J
0N
#885922
0C
#885932
0K
0P
#885945
1A
#890000
0!
#895000
1!
0@
1?
#895731
1E
1H
1I
1M
1N
#895876
0F
0L
#895945
1P
#900000
0!
#905000
1!
1@
#905731
1J
1L
#905784
1C
#905876
0D
0G
0M
0N
#905932
0A
0P
#905945
1K
#910000
0!
#915000
1!
0@
0?
0>
1=
#915731
1D
1F
1G
1M
1N
#915876
0E
0H
0L
#915922
0C
#915932
0B
0K
#915945
1A
#920000
0!
#925000
1!
1@
#925731
1E
#925784
1C
#925876
0F
0N
0O
#925932
0A
#925945
1B
1K
#930000
0!
#935000
1!
0@
1?
#935731
1F
1N
#935876
0D
0M
#935922
0C
#935932
0K
#935945
1P
#940000
0!
#945000
1!
1@
#945731
1H
1L
1M
#945876
0F
0G
0I
#945932
0P
#950000
0!
#955000
1!
0@
0?
1>
#955731
1I
#955784
1C
#955876
0H
0J
#955932
0B
#955945
1K
1P
#960000
0!
#965000
1!
1@
#965731
1D
#965876
0I
0L
#965922
0C
#965945
1B
#970000
0!
#975000
1!
0@
1?
#975731
1F
1G
1J
#975784
1C
#975876
0D
0E
0M
#975932
0B
#980000
0!
#985000
1!
1@
#985731
1O
#985876
0F
0N
#985945
1B
#990000
0!
#995000
1!
0@
0?
0>
0=
0<
1;
#995731
1F
1H
1M
#995876
0J
#995922
0C
#995932
0B
0K
0P
#995945
1A
#1000000
0!
#1005000
1!
1@
#1005731
1I
#1005784
1C
#1005876
0F
0H
0M
0O
#1005932
0A
#1010000
0!
#1015000
1!
0@
1?
#1015731
1H
#1015876
0G
0I
#1015945
1K
#1020000
0!
#1025000
1!
1@
#1025731
1F
1I
1M
1O
#1025922
0C
#1025945
1B
#1030000
0!
#1035000
1!
0@
0?
1>
#1035731
1E
1L
1N
#1035876
0H
0O
#1035932
0K
#1035945
1A
1P
#1040000
0!
#1045000
1!
1@
#1045731
1D
1G
1O
#1045784
1C
#1045876
0M
#1045932
0A
0B
0P
#1050000
0!
#1055000
1!
0@
1?
#1055876
0F
0G
0I
0N
#1055945
1A
1P
#1060000
0!
#1065000
1!
1@
#1065731
1M
1N
#1065876
0L
0O
#1065932
0A
#1070000
0!
#1075000
1!
0@
0?
0>
1=
#1075731
1F
1G
1J
1L
1O
#1075876
0E
0M
0N
#1075922
0C
#1075945
1A
1B
#1080000
0!
#1085000
1!
1@
#1085731
1E
1H
1M
#1085876
0G
0L
#1085945
1K
#1090000
0!
#1095000
1!
0@
1?
#1095731
1G
1I
1L
1N
#1095784
1C
#1095876
0D
0F
0H
0M
0O
#1095932
0A
0B
0K
#1100000
0!
#1105000
1!
1@
#1105731
1O
#1105876
0I
0J
0L
0N
#1105922
0C
#1105932
0P
#1105945
1B
#1110000
0!
#1115000
1!
0@
0?
1>
#1115731
1D
1F
1I
1M
1N
#1115784
1C
#1115932
0B
#1115945
1K
#1120000
0!
#1125000
1!
1@
#1125731
1H
1L
#1125876
0D
0F
0G
0I
0O
#1125932
0K
#1125945
1A
1B
1P
#1130000
0!
#1135000
1!
0@
1?
#1135731
1D
1G
1I
1J
1O
#1135876
0E
0H
0L
#1135932
0A
#1140000
0!
#1145000
1!
1@
#1145731
1E
1H
#1145876
0D
0G
0I
0J
0M
0N
#1145922
0C
#1145945
1K
#1150000
0!
#1155000
1!
0@
0?
0>
0=
1<
#1155731
1F
1M
#1155784
1C
#1155876
0E
#1155932
0K
0P
#1160000
0!
#1165000
1!
1@
#1165731
1E
1G
1I
1J
#1165876
0F
0H
#1165922
0C
#1165932
0B
#1170000
0!
#1175000
1!
0@
1?
#1175731
1F
1L
1N
#1175876
0G
0I
0J
0O
#1175945
1B
1K
#1180000
0!
#1185000
1!
1@
#1185731
1D
1H
1I
1J
1O
#1185784
1C
#1185876
0M
0N
#1185932
0B
#1185945
1A
#1190000
0!
#1195000
1!
0@
0?
1>
#1195731
1M
#1195876
0D
0E
0F
0J
0L
#1195932
0A
0K
#1195945
1B
#1200000
0!
#1205000
1!
1@
#1205731
1D
1G
1J
#1205876
0I
0M
0O
#1205932
0B
#1205945
1A
1P
#1210000
0!
#1215000
1!
0@
1?
#1215731
1F
1I
1L
1M
#1215876
0G
0H
#1215932
0A
0P
#1220000
0!
#1225000
1!
1@
#1225731
1G
1H
#1225876
0F
0I
#1225945
1A
1B
1K
#1230000
0!
#1235000
1!
0@
0?
0>
1=
#1235731
1I
#1235876
0H
0J
0L
#1235922
0C
#1235932
0A
0B
0K
#1235945
1P
#1240000
0!
#1245000
1!
1@
#1245731
1E
1F
1H
1J
1O
#1245876
0D
0G
#1245945
1K
#1250000
0!
#1255000
1!
0@
1?
#1255731
1L
1N
#1255784
1C
#1255876
0E
0J
0M
#1255932
0P
#1255945
1B
#1260000
0!
#1265000
1!
1@
#1265731
1D
1E
1J
#1265876
0F
0L
#1265932
0K
#1265945
1A
#1270000
0!
#1275000
1!
0@
0?
1>
#1275731
1G
1M
#1275876
0E
0J
#1275922
0C
#1275932
0A
0B
#1275945
1K
#1280000
0!
#1285000
1!
1@
#1285731
1L
#1285876
0D
0H
0O
#1290000
0!
#1295000
1!
0@
1?
#1295731
1D
1E
1F
1H
1O
#1295876
0G
0I
0L
0N
#1295945
1A
1B
#1300000
0!
#1305000
1!
1@
#1305731
1G
#1305876
0F
0H
#1305932
0B
0K
#1305945
1P
#1310000
0!
#1315000
1!
0@
0?
0>
0=
0<
0;
#1315731
1F
1J
1L
#1315784
1C
#1315876
0M
0O
#1315945
1K
#1320000
0!
#1325000
1!
#1325731
1H
1N
#1325876
0E
0G
0J
0L
#1325932
0A
0P
#1330000
0!
#1335000
1!
1#
1?
1=
09
17
03
0/
0.
0,
0*
0)
0'
0%
0$
#1340000
0!
#1345000
1!
0#
#1345731
1J
1L
1O
#1345876
0F
#1345945
1A
1B
#1350000
0!
#1355000
1!
#1355731
1G
#1355876
0H
0J
0O
#1355922
0C
#1355932
0A
0B
